# setting LC_ALL to "C"
# --> Including file '/workdir/gaudi/GaudiHive/options/SubSlotException.py'
# <-- End of file '/workdir/gaudi/GaudiHive/options/SubSlotException.py'
# Dumping all configurables and properties (different from default)
{'A1': {'Cardinality': 1,
        'OutputLevel': 3,
        'baseViewName': 'view',
        'viewNodeName': 'viewNode',
        'viewNumber': 2},
 'A2': {'Cardinality': 1, 'OutputLevel': 3, 'viewNodeName': ''},
 'A3': {'Cardinality': 1,
        'EventCount': 3,
        'Mode': 'exception',
        'OutputLevel': 3},
 'A4': {'Cardinality': 1, 'OutputLevel': 3, 'viewNodeName': ''},
 'AlgResourcePool': {'OutputLevel': 3},
 'ApplicationMgr': {'EventLoop': 'HiveSlimEventLoopMgr/HiveSlimEventLoopMgr',
                    'EvtMax': 10,
                    'EvtSel': 'NONE',
                    'ExtSvc': ['HiveWhiteBoard/EventDataSvc'],
                    'MessageSvcType': 'InertMessageSvc',
                    'TopAlg': ['GaudiSequencer/createViewSeq']},
 'AvalancheSchedulerSvc': {'OutputLevel': 3,
                           'ThreadPoolSize': 1,
                           'VerboseSubSlots': True},
 'EventDataSvc': {'EventSlots': 1},
 'HiveSlimEventLoopMgr': {'OutputLevel': 3,
                          'SchedulerName': 'AvalancheSchedulerSvc'},
 'createViewSeq': {'Members': ['Test::ViewTester/A1',
                               'GaudiSequencer/viewNode',
                               'Test::ViewTester/A4'],
                   'OutputLevel': 3,
                   'Sequential': True},
 'viewNode': {'Members': ['Test::ViewTester/A2',
                          'GaudiTesting::StopLoopAlg/A3'],
              'OutputLevel': 3,
              'Sequential': False,
              'ShortCircuit': False}}
MessageSvc           INFO Activating in a separate thread
ApplicationMgr    SUCCESS
====================================================================================================================================
                                                   Welcome to ApplicationMgr (GaudiCoreSvc v36r0)
                                          running on 05d0ccd909cb on Mon Aug 16 17:47:42 2021
====================================================================================================================================
ApplicationMgr       INFO Application Manager Configured successfully
ThreadPoolSvc        INFO no thread init tools attached
AvalancheSchedu...   INFO Activating scheduler in a separate thread
AlgResourcePool      INFO TopAlg list empty. Recovering the one of Application Manager
createViewSeq        INFO Member list: Test::ViewTester/A1, GaudiSequencer/viewNode, Test::ViewTester/A4
RndmGenSvc.Engine    INFO Generator engine type:CLHEP::RanluxEngine
RndmGenSvc.Engine    INFO Current Seed:1234567 Luxury:3
RndmGenSvc           INFO Using Random engine:HepRndm::Engine<CLHEP::RanluxEngine>
ToolSvc.Sequenc...   INFO This machine has a speed about   2.94 times the speed of a 2.8 GHz Xeon.
viewNode             INFO Member list: Test::ViewTester/A2, GaudiTesting::StopLoopAlg/A3
AvalancheSchedu...   INFO Found 4 algorithms
AvalancheSchedu...   INFO Data Dependencies for Algorithms:
  A1
      none
  A2
      none
  A3
      none
  A4
      none
PrecedenceSvc        INFO Assembling CF and DF task precedence rules
PrecedenceSvc        INFO PrecedenceSvc initialized successfully
AvalancheSchedu...   INFO Concurrency level information:
AvalancheSchedu...   INFO  o Number of events in flight: 1
AvalancheSchedu...   INFO  o TBB thread pool size:  'ThreadPoolSize':1
AvalancheSchedu...   INFO Task scheduling settings:
AvalancheSchedu...   INFO  o Avalanche generation mode: disabled
AvalancheSchedu...   INFO  o Preemptive scheduling of CPU-blocking tasks: disabled
AvalancheSchedu...   INFO  o Scheduling of condition tasks: disabled
HiveSlimEventLo...WARNING Unable to locate service "EventSelector"
HiveSlimEventLo...WARNING No events will be processed from external input.
HiveSlimEventLo...   INFO Found 0 events in black list
ApplicationMgr       INFO Application Manager Initialized successfully
ApplicationMgr       INFO Application Manager Started successfully
HiveSlimEventLo...   INFO Starting loop on events
A1                   INFO Running in whole event context
A1                   INFO Attached view view0 to node viewNode for s: 0  e: 0
A1                   INFO Attached view view1 to node viewNode for s: 0  e: 0
A2                   INFO Running in view view0
A3                   INFO 3 events to go
A2                   INFO Running in view view1
A3                   INFO 2 events to go
A4                   INFO Running in whole event context
A1                   INFO Running in whole event context
A1                   INFO Attached view view0 to node viewNode for s: 0  e: 1
A1                   INFO Attached view view1 to node viewNode for s: 0  e: 1
A2                   INFO Running in view view0
A3                   INFO 1 events to go
A2                   INFO Running in view view1
A3                   INFO Stopping loop with exception
A3                  FATAL GaudiTesting::StopLoopAlg:: Exception throw: Stopping loop StatusCode=FAILURE
A3                  FATAL  Exception with tag= is caught
A3                  ERROR  	 A3:: Stopping loop	 StatusCode=FAILURE
AlgTask             FATAL .executeEvent(): Exception with tag= thrown by A3
AlgTask             ERROR  	 A3:: Stopping loop	 StatusCode=FAILURE
AvalancheSchedu...  ERROR *** Stall detected in slot 0! ***
AvalancheSchedu...  ERROR Event 1 on slot 0 failed
AvalancheSchedu...   INFO Dumping scheduler state
=========================================================================================
++++++++++++++++++++++++++++++++++++ SCHEDULER STATE ++++++++++++++++++++++++++++++++++++
=========================================================================================

------------------ Last schedule: Task/Event/Slot/Thread/State Mapping ------------------

WARNING Enable TimelineSvc in record mode (RecordTimeline = True) to trace the mapping

---------------------------- Task/CF/FSM Mapping [target slot] --------------------------

[ slot: 0  event: 1 ]:

ERROR alg(s): in subslot(s)

Number of sub-slots: 2

[ slot: 0, sub-slot: 0, entry: viewNode, event: 1 ]:

ERROR alg(s):

[ slot: 0, sub-slot: 1, entry: viewNode, event: 1 ]:

ERROR alg(s): A3


=========================================================================================
++++++++++++++++++++++++++++++++++++++ END OF DUMP ++++++++++++++++++++++++++++++++++++++
=========================================================================================


PrecedenceSvc     WARNING To trace temporal and topological aspects of execution flow, set DumpPrecedenceRules property to True
HiveSlimEventLo...  FATAL Failed event detected on s: 0  e: 1
HiveSlimEventLo...   INFO ---> Loop Finished (skipping 1st evt) -  WSS 152.238 total time 3002218
HiveSlimEventLo...   INFO 0 events were SKIPed
ApplicationMgr       INFO Application Manager Stopped successfully
A3                SUCCESS Exceptions/Errors/Warnings/Infos Statistics : 1/0/0/0
A3                SUCCESS  #EXCEPTIONS = 1        Message = 'Stopping loop'
HiveSlimEventLo...   INFO Histograms converted successfully according to request.
AvalancheSchedu...   INFO Joining Scheduler thread
ToolSvc              INFO Removing all tools created by ToolSvc
ApplicationMgr       INFO Application Manager Finalized successfully
ApplicationMgr      ERROR Application Manager Terminated with error code 6
